<?xml version="1.0" encoding="utf-8"?>
<!-- Generator: Adobe Illustrator 19.0.0, SVG Export Plug-In . SVG Version: 6.00 Build 0)  -->
<svg version="1.1" id="FER-Monty.2_xA0_Imagen_1_" xmlns="http://www.w3.org/2000/svg" xmlns:xlink="http://www.w3.org/1999/xlink"
	 x="0px" y="0px" viewBox="0 0 1768.2 602.5" style="enable-background:new 0 0 1768.2 602.5;" xml:space="preserve">
<style type="text/css">
	.st0{fill:#FEFEFE;}
	.st1{fill:#8A8A8A;}
	.st2{fill:#55584D;}
	.st3{fill:#FE7A13;}
	.st4{fill:#FE7B13;}
	.st5{fill:#5E5E77;}
	.st6{fill:#4A4A4A;}
	.st7{fill:#64637C;}
	.st8{fill:#8B8B8B;}
	.st9{fill:#FEFDFC;}
</style>
<g>
	<g>
		<path class="st0" d="M17.6,603.3c-5.6,0-11.2,0-16.8,0c0-200.8,0-401.6,0-602.5c307.5,0,615,0,922.5,0c-0.8,0.3-1.6,0.7-2.5,0.8
			c-27.2,2.7-54.5,4.4-81.5,8.4c-60.3,9-118.5,25.8-174.7,49.3c-61.8,25.9-119,59.4-171.6,100.9c-83.3,65.9-150,145.7-199.7,239.6
			c-6.7,12.7-12.9,25.6-19.4,38.7c1.6,0.7,2.6,1.1,3.8,1.6c0.8-1.6,1.4-2.8,2-4.2C332,324,407.4,230.5,505.6,155.5
			c75.6-57.8,159.6-98.6,251.2-123.9C808.5,17.3,861.2,8.7,914.7,5.8c51.6-2.8,102.9-0.4,153.8,8c41.1,6.7,81.2,17.4,119.9,32.8
			c72.3,28.8,134,72.7,184.1,132.2c76.5,90.9,112.2,196.3,109.9,314.9c-0.1,7.2-1,14.3-1.5,21.5c-28,1.5-56.1,2.9-84.1,4.4
			c-5.3,0.3-10.5,1-15.8,1.4c-8.8,0-17.6,0-26.3,0.1c-0.8-0.1-1.6-0.3-2.3-0.3c-27.8-1-55.7-2-83.5-2.9c-32.5-1.1-65-2.1-97.5-3.1
			c-34.5-1.1-69-2.2-103.5-3.3c-32.9-1.1-65.8-2.1-98.7-3.2c-33-1.1-66.1-2.1-99.1-3.1c-33.8-1.1-67.7-2.2-101.5-3.2
			c-33.6-1.1-67.1-2.2-100.7-3.2c-32.8-1-65.5-2.1-98.3-3.1c-34.2-1.1-68.5-2.2-102.7-3.3c-33-1.1-66.1-2.1-99.1-3.2
			c-33.2-1.1-66.3-2.1-99.5-3.2c-16.9-0.5-33.8-1.2-50.8-1.6c-7-0.2-14,0-21.1,0c0,2.3,0,4.4,0,6.6c0.7,0.1,1.2,0.3,1.7,0.3
			c13.2,0.5,26.4,1,39.6,1.4c23.8,0.8,47.7,1.6,71.5,2.3c36.8,1.2,73.5,2.3,110.3,3.5c22.1,0.7,44.2,1.5,66.3,2.2
			c42.5,1.4,85,2.7,127.5,4.1c24,0.8,48,1.5,71.9,2.3c36.4,1.2,72.7,2.3,109.1,3.4c22.2,0.7,44.5,1.4,66.7,2.2
			c42.8,1.4,85.5,2.7,128.3,4.1c24.1,0.8,48.2,1.6,72.3,2.3c44.5,1.4,89,2.8,133.5,4.2c20.5,0.6,41,1.2,61.6,1.8
			c6.8,0.2,13.6,0.6,20.5,0.9c-24.2,1.7-48.4,3.1-72.6,4.5c-29.5,1.7-59.1,3.2-88.6,4.9c-33.8,1.9-67.6,3.7-101.4,5.6
			c-33.9,1.9-67.8,3.7-101.8,5.6c-28.9,1.6-57.7,3.2-86.6,4.8c-29.3,1.6-58.5,3.2-87.8,4.8c-33.9,1.9-67.9,3.7-101.8,5.6
			c-29,1.6-58,3.2-87,4.8c-28.9,1.6-57.7,3.2-86.6,4.8c-29.1,1.6-58.3,3.2-87.4,4.8c-29,1.6-58,3.2-87,4.8
			c-29.1,1.6-58.3,3.2-87.4,4.8c-29,1.6-58,3.2-87,4.8c-32.2,1.7-64.4,3.4-96.6,5.1c-4.4,0.2-8.7,0.6-13.1,0.9c0,2.2,0,4.1,0,5.9
			c3.4,0,6.5-0.1,9.5,0C15.1,602.4,16.4,602.9,17.6,603.3z M855.2,187.1c0.2,0.2,0.3,0.3,0.5,0.5c-0.4,1.3-0.7,2.6-1.1,3.8
			c-18,53.2-36.1,106.3-54.1,159.5c-6.2,18.4-12.3,36.8-18.3,55.3c-1.9,6-2.1,12.1,1.2,17.8c4.7,8.3,14.4,8.7,19.4,0.6
			c2.6-4.1,4.5-8.8,6.1-13.4c9-26.2,17.9-52.4,26.8-78.6c16.5-48.8,33.2-97.5,49.4-146.3c2.2-6.7,3.4-14,3.6-21.1
			c0.2-9.4-5.9-16.8-14.2-17.6c-5.1-0.5-10.7,0.3-15.7,1.8c-16,5-27.6,16.2-38.3,28.4c-11.7,13.3-20,28.8-28.1,44.5
			c-0.6,1.2-1.3,2.3-2.4,4.3c-0.5-23.5-7.4-43.4-22.9-59.7c-14.2-14.8-31.5-21.9-52.3-19.2c-21.4,2.8-37.9,14.2-51.9,29.7
			c-18.9,20.9-30,45.7-33.6,73.7c-2.4,18-1.2,35.6,5.1,52.8c3.2,8.5,7.3,16.4,14.8,21.9c10.2,7.5,20.6,3.2,23.1-9.2
			c1.3-6.5-0.6-12.1-4.8-17c-5.9-7.1-10.9-14.8-12.2-24.3c-2.1-15.4,1.1-30,7.4-43.9c8.5-19,20.9-34.6,40-44.1
			c21-10.5,41.4-4.4,53.3,15.7c7.5,12.8,9.9,26.9,10.5,41.4c0.8,21.4-4.1,41.8-13,61.2c-3.9,8.5-8.5,16.6-12.6,25
			c-2.5,5.1-4,10.5-2.2,16.2c2.6,8.3,10.5,10.9,17.3,5.5c2.1-1.6,4.1-3.6,5.5-5.8c3.8-5.9,7.8-11.8,10.7-18.2
			c9.1-19.5,17.6-39.3,26.5-59c9.6-21.1,19.5-42.1,34.1-60.4C839.2,200.7,846,192.7,855.2,187.1z M1138.4,400.2
			c0.3,1.3,0.7,2.6,1,3.8c3.9,15,13.5,22.6,28.9,23.2c5.3,0.2,10.7,0.4,16,0.9c10,0.8,14.1,6.4,12.3,16.2
			c-1.2,6.2-5.1,10.1-10.9,11.5c-5.9,1.4-12.1,2.3-18.1,2.5c-15.2,0.3-30.4,0.1-45.6,0.2c-3.5,0-6.9,0.2-10.3,0.7
			c-7.9,1.3-12.4,7.9-11.8,17.2c0.5,8.6,5,13.8,13.4,13.8c23.5,0,46.9,0.1,70.4-0.8c14.7-0.6,26-8.1,32.9-21.4
			c9.4-18.1,9.3-36.3-0.4-54.3c-3.3-6.1-3.8-11.9-1.5-18.4c5.3-15.5,10.4-31,15.6-46.6c5.9-17.8,12-35.5,17.4-53.5
			c1.2-4,0.6-9-0.4-13.3c-1-4.4-4.5-7.2-9.3-7.5c-4.7-0.3-8,1.9-10,5.9c-2,4-3.9,8.2-5.3,12.5c-10.4,30.3-20.9,60.6-30.8,91.1
			c-2,6.1-5.2,9.1-10.8,10.6c-0.5,0.1-1,0.4-1.5,0.5c-11.6,3.2-17.7-2.4-15.7-14.3c0-0.3,0.1-0.5,0.2-0.8c3.7-12.1,7.2-24.2,11-36.2
			c5.2-16.1,10.7-32,15.9-48.1c1.9-5.8,1.6-11.6-2.1-16.8c-3.9-5.5-11-6.2-15.4-1.1c-2.6,2.9-4.6,6.6-6,10.2
			c-4.8,13.1-9.2,26.4-13.6,39.6c-3.9,11.7-7.8,23.4-11.1,33.3c-4.9,2.9-8.7,4.7-11.9,7.3c-9.1,7.2-17.9,14.7-27,21.9
			c-2.2,1.7-4.7,3.1-7.3,4.1c-5.1,2.1-7.8,0.3-7.6-5.2c0.1-2.5,0.4-5.1,1.2-7.5c7.8-23.9,15.7-47.8,23.8-71.6c0.3-0.9,2-2,3.1-2
			c6.1-0.2,12.3,0.2,18.4-0.3c3.7-0.3,7.8-1.1,10.9-3c5.5-3.4,7.4-12.3,5.2-19.6c-1.6-5.2-5.5-7.8-13.2-8.2c-4.3-0.2-8.6,0-13.3,0
			c0.6-1.9,1.1-3.2,1.5-4.4c2.6-8.6,5.4-17.3,7.8-26c1.2-4.4,0.2-8.8-2.3-12.6c-4.5-6.8-13.1-6.9-17.5,0c-1.6,2.4-2.8,5.1-3.8,7.9
			c-3.8,10.6-7.6,21.3-11.2,32c-0.8,2.2-1.7,3.1-4.2,3c-4.3-0.2-8.6-0.2-12.8,0.3c-7.6,0.8-11.4,4.3-13.1,11.8
			c-2.7,11.3,2.8,18.6,14.4,19.1c1.2,0,2.4,0.1,3.7,0.2c-0.1,0.7-0.1,1.2-0.2,1.7c-6.2,18.5-12.5,37.1-18.7,55.6
			c-0.3,1-0.8,2.1-1.5,2.8c-7.4,7.7-14.8,15.3-22.4,22.9c-1.6,1.6-3.6,2.9-5.6,3.8c-4.9,2.4-8.5,0.5-8.2-5c0.2-4.2,1.3-8.4,2.7-12.4
			c5.1-14.2,10.6-28.2,15.7-42.3c4.3-11.9,7.7-24.2,6.9-37c-1.3-18.7-15.8-30.9-35.3-19.2c-4.7,2.8-8.9,6.6-13.3,9.9
			c-0.3-1.6-0.5-3.5-1-5.4c-1.3-4.7-4.1-8.1-9.2-8.9c-4.6-0.8-8.4,1.3-11,6.2c-2,3.9-3.8,7.9-5.3,12.1
			c-8.9,25.9-17.8,51.8-26.5,77.8c-4.6,13.6-8.9,27.3-13.1,41.1c-1.4,4.5-0.4,9,2,13.1c4.4,7.5,13.8,7.7,18.1,0.1
			c2.1-3.5,3.7-7.4,5-11.3c8.6-24.9,17.1-49.8,25.5-74.8c4.8-14.2,16-22.1,28.1-29c1.6-0.9,4.9-0.8,6.2,0.3c1.3,1.2,1.8,4.1,1.5,6.1
			c-0.4,3.1-1.5,6.2-2.6,9.2c-6,17.1-12.4,34-18.1,51.2c-3.7,11.1-5.3,22.5-2.3,34.2c3.7,14.5,15,22.3,28.1,18.6
			c5.7-1.6,11.1-4.5,16.2-7.5c4.6-2.7,8.7-6.4,13-9.8c6,16.3,17.5,22.1,33.5,15.8c8-3.2,15.4-7.8,22.6-12.5
			C1125.2,411,1131.6,405.4,1138.4,400.2z M944.9,328.1c0.3-13.3-1.6-24.4-5.6-34c-8.2-19.3-28.4-25.4-45.9-13.8
			c-10.5,6.9-17.8,16.7-23.8,27.5c-10.5,19.1-15.8,39.7-17.2,61.4c-0.8,13-0.2,25.8,4.5,38.2c9.3,24.5,32.1,30.7,51.9,13.4
			c6.1-5.3,11.5-11.9,15.8-18.8C938.6,379.4,944.1,354.3,944.9,328.1z M750.8,216.3c-0.5-2.8-0.6-4.3-1-5.9
			c-1.5-6.3-5.6-10.6-10.6-11.1c-6.1-0.6-9.7,3-12.1,8c-2,4.3-3.9,8.8-5.5,13.3c-15,44.1-30,88.2-44.9,132.3
			c-6,17.9-12,35.8-17.8,53.8c-1.9,5.9-1.9,11.9,1.3,17.4c4.7,8.2,14.4,8.7,19.4,0.6c2.5-4,4.4-8.5,6-13
			c20.4-59.9,40.7-119.9,61-179.9C748.4,226.4,749.6,220.8,750.8,216.3z M452.6,421.8c-0.4-0.3-0.9-0.5-1.3-0.8
			c0.4-1.6,0.7-3.2,1.2-4.7c2.1-5.5,4.4-10.9,6.2-16.4c0.4-1.2-1-2.9-1.5-4.4c-1.2,0.5-3.3,0.6-3.6,1.5c-3.3,8-6.8,15.9-9.3,24.2
			c-1.6,5.3,3.2,9,8.6,7.2c2.4-0.8,4.5-2.3,6.7-3.5c0.7-0.4,1.4-0.7,2.6-1.2c-2.1,3.5-4.2,6.3-5.7,9.3c-2.3,4.9-1.6,9.2,1.5,11.8
			c3,2.5,7.6,2.5,11.9-0.5c7.5-5.2,10.4-12.4,8.8-21.8c4.8-0.8,9.6-1.6,13.9-2.3c-3.3,4.3-7,8.3-9.6,13c-2.7,4.7-1.6,9.1,1.5,11.7
			c3,2.5,7.6,2.4,11.9-0.6c7.5-5.2,10.4-12.4,8.7-21.7c2.3-0.4,4.4-0.7,6.5-1.1c2.3,6.8,5.4,8.7,11.9,7c4.2-1.1,8.2-2.9,12.4-4.5
			c5.1,6.3,7.8,6.6,19.7,1.7c5.9,6.6,11.1,1.6,16.3-1.3c4.2,5.7,7,5.9,14.9,1.3c1.7,3.9,4.9,4,7.9,2.4c3.5-1.8,6.8-4.2,9.7-6.8
			c1.2-1.1,1.9-4.4,1.2-5.4c-1.8-2.6-3.6,0-5.2,1.2c-2.3,1.6-4.5,3.3-6.7,5c-0.5-0.4-1-0.7-1.5-1.1c1.1-3.2,2.3-6.3,3.3-9.5
			c0.8-2.4,2.9-5.5-0.6-6.9c-3.5-1.5-4.1,2.3-5.3,4.5c-1.9,3.5-3.4,7.2-5.5,10.5c-0.7,1.1-2.9,1.4-4.4,2.1c-0.3-1.7-1.2-3.6-0.8-5.1
			c2.5-7.7,8.1-12.2,15.7-14.6c1.3-0.4,2.8-0.4,3.8-1.2c1-0.8,2-2.4,1.8-3.5c-0.2-1-1.7-2.2-2.9-2.5c-1.2-0.3-2.6,0.1-3.9,0.4
			c-10.2,2.8-17.2,9.3-21.3,18.9c-1.7,4-6.1,7.3-9.3,6.8c0-0.3-0.1-0.5-0.1-0.7c2.3-6.5,4.8-12.9,6.8-19.5c0.4-1.4-0.9-3.3-1.5-5
			c-1.4,0.9-3.4,1.5-4.1,2.8c-2.2,4.5-4.4,9.2-5.8,14c-1.6,5.5-5.6,7.8-10.4,9.4c-1.2,0.4-2.7-0.1-4-0.1c0.3-1.3,0.3-2.8,1-3.8
			c1.8-2.5,4.1-4.6,6-7c5.9-7.3,4.7-12-3.8-15.4c0.1-0.5,0.4-1.1,0.2-1.5c-0.5-1.6-1.1-3.2-1.7-4.8c-1.4,1-3.2,1.6-4,3
			c-1.4,2.2-2.2,4.8-3.1,7.3c-0.7,2.1-1.8,4.7,1,5.9c2.8,1.3,3.4-1.6,4.6-3.2c0.1-0.2,0.5-0.2,0.7-0.3c2.9,0.6,2.5,2.2,1.1,4
			c-5.8,7.8-13.4,13.2-22.7,16c-1.4,0.4-3.1-0.3-4.7-0.5c0.9-1.3,1.5-3,2.7-3.8c2.4-1.7,5.4-2.6,7.6-4.4c1.2-1,2.1-3.5,1.8-4.9
			c-0.6-2.4-2.8-1.7-4.6-0.8c-0.8,0.4-1.6,0.6-2.4,0.9c-0.3-0.3-0.6-0.6-0.8-0.9c1.1-1.3,1.9-2.7,3.2-3.7c1.6-1.2,3.8-1.6,5.2-2.9
			c1.1-1.1,1.5-3,2.2-4.5c-1.6-0.4-3.4-1.5-4.7-1.1c-2.7,0.9-5.3,2.4-7.7,4.2c-3.2,2.4-5.1,5.8-4,9.8c1.1,3.9-1,4.6-3.9,5.1
			c-3.8,0.7-7.5,1.5-11.3,2.2c-1,0.2-2.1-0.2-4.2-0.4c2.1-1.3,3.2-1.8,4-2.6c3.5-3.5,7.4-6.9,10.3-10.9c2.2-3,0.3-6.2-3.1-6.4
			c-4.4-0.2-8.8-0.3-13.2,0.1c-1.2,0.1-2.3,2.1-3.4,3.2c1.2,1,2.3,2.6,3.6,2.8c2.5,0.5,5.1,0.1,8.2,0.1
			c-8.1,9.2-26.3,16.5-32.1,13.1c1.1-0.7,2.2-1.2,3-2c3.6-3.5,7.5-6.8,10.4-10.8c2.2-3,0.5-6.3-2.8-6.5c-4.5-0.3-9.1-0.3-13.6,0.1
			c-1.2,0.1-2.1,2.2-3.2,3.4c1.1,0.9,2.2,2.4,3.4,2.6c2.5,0.4,5.2,0.1,7.8,0.1c0.1,0.3,0.3,0.7,0.4,1
			C469.2,409.5,460.9,415.7,452.6,421.8z M430.9,368c-13.8-0.1-27.2,10.7-29.7,24.4c-1.2,6.5,0,12.5,5.1,17.2
			c1.9,1.7,4.3,2.7,6.4,0.3c1.9-2.2,0.2-3.9-1.1-6c-1.6-2.6-3.4-5.6-3.3-8.5c0.2-11.1,13.2-21.5,24.1-20.1c8.3,1.1,12.5,7.6,10,15.6
			c-1.5,4.9-4.9,8.1-9.7,9.8c-2.4,0.8-3.7,2.3-2.8,4.8c0.9,2.5,3,2.7,5.3,2.1c9.3-2.4,16.3-13.5,15-23.7
			C449.1,374.6,441.3,368.1,430.9,368z M410.7,425.7c0.8,0.9,1.8,2.9,2.7,2.8c1.4-0.1,3.3-1.3,3.8-2.5c5.8-14.3,11.4-28.6,16.8-43
			c0.5-1.3-1-3.4-1.6-5.1c-1.4,0.9-2.9,1.6-4.3,2.6c-0.6,0.4-0.7,1.4-1,2.1c-5,12.7-10,25.4-15,38.2
			C411.6,422.2,411.3,423.6,410.7,425.7z M569.5,391.9c3.5-3.6,7.4-6.9,10.4-10.9c1.4-1.8-1.6-5-3.2-3.8c-3.8,2.8-7.4,5.9-10.4,9.4
			C564.8,388.4,566.7,391.3,569.5,391.9z M464.7,389.6c-2.2-1.8-3.3-3.6-4.7-3.8c-2.8-0.3-4.2,2.1-3.8,4.5c0.3,1.5,2.1,2.7,3.3,4.1
			C461,393,462.5,391.7,464.7,389.6z"/>
		<path class="st0" d="M986.5,0.8c260.8,0,521.7,0,782.5,0c0,200.8,0,401.6,0,602.5c-583.3,0-1166.5,0-1749.8,0
			c0.9-0.5,1.8-1.5,2.7-1.5c23.9-1.4,47.9-2.7,71.8-4c33.9-1.9,67.9-3.7,101.8-5.6c29-1.6,58-3.2,87-4.8
			c33.9-1.9,67.9-3.7,101.8-5.6c33.7-1.9,67.3-3.7,101-5.6c29.1-1.6,58.3-3.2,87.4-4.8c29.3-1.6,58.5-3.2,87.8-4.8
			c28.7-1.6,57.5-3.2,86.2-4.8c29.7-1.6,59.3-3.2,89-4.9c38.6-2.1,77.2-4.3,115.8-6.4c33.9-1.9,67.9-3.7,101.8-5.6
			c29-1.6,58-3.2,87-4.8c33.8-1.9,67.6-3.8,101.4-5.6c27.3-1.5,54.6-2.8,81.8-4.3c6.3-0.3,12.7-1,19-1.6c8.3-0.1,16.5-0.3,24.8-0.4
			c0.9,0.2,1.8,0.5,2.7,0.5c36.4,1.1,72.9,2.3,109.3,3.4c-1.5,11.6-3,23.1-4.6,35c0.9,0.2,2,0.5,3.4,0.8c1-5.9,2-11.6,2.9-17.2
			c1-6.2,2.1-12.5,3.1-18.7c3.6,0.3,7.2,0.6,10.7,0.7c22.5,0.8,45,1.5,67.5,2.2c44.3,1.4,88.7,2.8,133,4.2c1.4,0,2.9,0,4.5,0
			c0-2.6,0-4.8,0-7.4c-72-2.3-143.9-4.6-215.8-6.9c-0.3-0.3-0.6-0.6-0.9-0.8c0.5-0.8,1-1.7,1.5-2.5c0,0,0.1-0.1,0.1-0.1
			c16.9-1,33.8-2,50.7-2.9c29.5-1.6,59.1-3.2,88.6-4.9c16.9-0.9,33.8-1.9,50.7-2.7c29-1.4,58-2.7,87-4.1c1.2-0.1,2.3-0.2,3.4-0.3
			c0-2.3,0-4.2,0-6.3c-1.8,0-3.3-0.1-4.7,0c-16.8,0.7-33.5,1.4-50.3,2.2c-22.1,1.1-44.2,2.3-66.3,3.5c-27.1,1.5-54.3,3-81.4,4.5
			c-17.6,1-35.1,2.1-52.7,3c-8.2,0.4-16.5,0.5-24.7,0.8c2.4-28,1.8-55.9-1.2-83.8c-5-48-16.5-94.4-36.3-138.4
			c-52-116-136.9-198.5-254.2-247.5c-40.1-16.7-81.8-28.1-124.7-34.5c-26.3-4-52.9-5.7-79.4-8.4C988.4,1.5,987.5,1.1,986.5,0.8z"/>
		<path class="st1" d="M1342.5,528.6c-6.3,0.5-12.6,1.2-19,1.6c-27.3,1.5-54.6,2.9-81.8,4.3c-33.8,1.8-67.6,3.7-101.4,5.6
			c-29,1.6-58,3.2-87,4.8c-33.9,1.9-67.9,3.7-101.8,5.6c-38.6,2.1-77.2,4.3-115.8,6.4c-29.7,1.6-59.3,3.2-89,4.9
			c-28.7,1.6-57.5,3.2-86.2,4.8c-29.3,1.6-58.5,3.2-87.8,4.8c-29.1,1.6-58.3,3.2-87.4,4.8c-33.7,1.9-67.3,3.7-101,5.6
			c-33.9,1.9-67.9,3.7-101.8,5.6c-29,1.6-58,3.2-87,4.8c-33.9,1.9-67.9,3.7-101.8,5.6c-23.9,1.3-47.9,2.6-71.8,4
			c-0.9,0.1-1.8,1-2.7,1.5c-0.5,0-1.1,0-1.6,0c-1.2-0.3-2.5-0.9-3.7-0.9c-3.1-0.1-6.1,0-9.5,0c0-1.8,0-3.7,0-5.9
			c4.4-0.3,8.7-0.7,13.1-0.9c32.2-1.7,64.4-3.4,96.6-5.1c29-1.6,58-3.2,87-4.8c29.1-1.6,58.3-3.2,87.4-4.8c29-1.6,58-3.2,87-4.8
			c29.1-1.6,58.3-3.2,87.4-4.8c28.9-1.6,57.7-3.2,86.6-4.8c29-1.6,58-3.2,87-4.8c33.9-1.9,67.9-3.7,101.8-5.6
			c29.3-1.6,58.5-3.2,87.8-4.8c28.9-1.6,57.7-3.2,86.6-4.8c33.9-1.9,67.8-3.7,101.8-5.6c33.8-1.9,67.6-3.7,101.4-5.6
			c29.5-1.6,59.1-3.2,88.6-4.9c24.2-1.4,48.4-2.8,72.6-4.5c-6.8-0.3-13.6-0.7-20.5-0.9c-20.5-0.6-41-1.2-61.6-1.8
			c-44.5-1.4-89-2.8-133.5-4.2c-24.1-0.8-48.2-1.6-72.3-2.3c-42.8-1.4-85.5-2.7-128.3-4.1c-22.2-0.7-44.5-1.5-66.7-2.2
			c-36.4-1.2-72.7-2.3-109.1-3.4c-24-0.8-48-1.5-71.9-2.3c-42.5-1.4-85-2.7-127.5-4.1c-22.1-0.7-44.2-1.5-66.3-2.2
			c-36.8-1.2-73.5-2.3-110.3-3.5c-23.8-0.8-47.7-1.5-71.5-2.3c-13.2-0.4-26.4-0.9-39.6-1.4c-0.5,0-1-0.2-1.7-0.3c0-2.2,0-4.3,0-6.6
			c7.1,0,14.1-0.2,21.1,0c16.9,0.5,33.8,1.1,50.8,1.6c33.2,1.1,66.3,2.1,99.5,3.2c33,1.1,66.1,2.1,99.1,3.2
			c34.2,1.1,68.5,2.2,102.7,3.3c32.8,1,65.5,2.1,98.3,3.1c33.6,1.1,67.1,2.1,100.7,3.2c33.8,1.1,67.7,2.2,101.5,3.2
			c33,1.1,66.1,2.1,99.1,3.1c32.9,1,65.8,2.1,98.7,3.2c34.5,1.1,69,2.2,103.5,3.3c32.5,1,65,2,97.5,3.1c27.8,0.9,55.7,1.9,83.5,2.9
			c0.8,0,1.6,0.2,2.3,0.3c-1,0.4-2,1.2-3,1.2c-13,0.7-26,1.1-39,1.8c-7.6,0.4-15.3,1.1-22.9,1.7c0.5,0.5,1,0.6,1.6,0.6
			c14.8,0.3,29.5,0.6,44.3,1C1337.9,527.5,1340.2,528.2,1342.5,528.6z"/>
		<path class="st2" d="M1484.1,532c-1,6.2-2.1,12.5-3.1,18.7c-0.9,5.6-1.9,11.2-2.9,17.2c-1.4-0.3-2.5-0.6-3.4-0.8
			c1.6-11.9,3.1-23.4,4.6-35c0.3-2.4,0.5-4.9,0.8-7.3l0,0c0.5-0.6,1.4-1.2,1.4-1.8c-0.1-2.6-0.4-5.2-0.6-7.8
			c0.5-7.2,1.3-14.3,1.5-21.5c2.4-118.5-33.4-224-109.9-314.9c-50.1-59.6-111.8-103.4-184.1-132.2c-38.7-15.5-78.8-26.1-119.9-32.8
			c-51-8.4-102.3-10.8-153.8-8c-53.5,2.9-106.1,11.5-157.8,25.8c-91.6,25.3-175.6,66.2-251.2,123.9C407.4,230.5,332,324,279.8,436
			c-0.6,1.3-1.3,2.6-2,4.2c-1.2-0.5-2.2-0.9-3.8-1.6c6.5-13.1,12.7-26,19.4-38.7c49.7-93.9,116.4-173.7,199.7-239.6
			c52.5-41.5,109.8-75.1,171.6-100.9C720.9,35.7,779.1,18.9,839.4,10c27-4,54.3-5.7,81.5-8.4c0.8-0.1,1.6-0.5,2.5-0.8
			c21.1,0,42.1,0,63.2,0c1,0.3,1.9,0.7,2.9,0.8c26.5,2.7,53.1,4.4,79.4,8.4c42.9,6.5,84.6,17.8,124.7,34.5
			c117.3,49,202.2,131.5,254.2,247.5c19.8,44,31.3,90.5,36.3,138.4c2.9,27.9,3.5,55.8,1.2,83.8c-0.1,2.4-0.2,4.8-0.3,7.2
			c0,0-0.1,0.1-0.1,0.1c-0.5,0.8-1,1.7-1.5,2.5c0.3,0.3,0.6,0.6,0.9,0.8C1484.2,527.2,1484.1,529.6,1484.1,532z"/>
		<path class="st3" d="M1138.4,400.2c-6.8,5.3-13.1,10.8-20.1,15.4c-7.2,4.7-14.7,9.3-22.6,12.5c-16,6.3-27.5,0.6-33.5-15.8
			c-4.4,3.3-8.4,7-13,9.8c-5.1,3-10.5,5.9-16.2,7.5c-13.1,3.7-24.3-4.1-28.1-18.6c-3-11.7-1.4-23.1,2.3-34.2
			c5.7-17.2,12.1-34.1,18.1-51.2c1.1-3,2.2-6.1,2.6-9.2c0.2-2-0.2-5-1.5-6.1c-1.3-1.1-4.6-1.2-6.2-0.3c-12.1,6.9-23.3,14.8-28.1,29
			c-8.4,25-16.9,49.9-25.5,74.8c-1.3,3.9-2.9,7.8-5,11.3c-4.4,7.5-13.7,7.4-18.1-0.1c-2.4-4.1-3.3-8.6-2-13.1
			c4.2-13.7,8.5-27.4,13.1-41.1c8.7-26,17.6-51.9,26.5-77.8c1.4-4.1,3.2-8.2,5.3-12.1c2.6-4.9,6.5-7,11-6.2c5.1,0.9,7.8,4.3,9.2,8.9
			c0.5,1.9,0.7,3.8,1,5.4c4.4-3.3,8.5-7,13.3-9.9c19.4-11.7,34,0.5,35.3,19.2c0.9,12.9-2.6,25.1-6.9,37
			c-5.1,14.1-10.6,28.1-15.7,42.3c-1.4,4-2.5,8.2-2.7,12.4c-0.2,5.5,3.3,7.4,8.2,5c2-1,4-2.3,5.6-3.8c7.5-7.5,15-15.2,22.4-22.9
			c0.7-0.7,1.1-1.8,1.5-2.8c6.3-18.5,12.5-37.1,18.7-55.6c0.2-0.5,0.1-1,0.2-1.7c-1.3-0.1-2.5-0.1-3.7-0.2
			c-11.6-0.5-17.1-7.8-14.4-19.1c1.8-7.4,5.5-11,13.1-11.8c4.2-0.4,8.5-0.4,12.8-0.3c2.5,0.1,3.4-0.8,4.2-3
			c3.6-10.7,7.4-21.4,11.2-32c1-2.7,2.2-5.4,3.8-7.9c4.4-6.9,13-6.9,17.5,0c2.5,3.8,3.5,8.2,2.3,12.6c-2.4,8.7-5.2,17.3-7.8,26
			c-0.4,1.3-0.8,2.5-1.5,4.4c4.7,0,9-0.2,13.3,0c7.7,0.4,11.6,3,13.2,8.2c2.2,7.3,0.3,16.2-5.2,19.6c-3.1,1.9-7.2,2.7-10.9,3
			c-6.1,0.5-12.3,0.1-18.4,0.3c-1.1,0-2.8,1.1-3.1,2c-8,23.8-15.9,47.7-23.8,71.6c-0.8,2.4-1.1,5-1.2,7.5c-0.2,5.5,2.5,7.3,7.6,5.2
			c2.6-1.1,5.1-2.4,7.3-4.1c9.1-7.2,17.9-14.8,27-21.9c3.2-2.5,7.1-4.3,11.9-7.3c3.3-9.9,7.2-21.7,11.1-33.3
			c4.5-13.2,8.9-26.5,13.6-39.6c1.3-3.7,3.4-7.3,6-10.2c4.4-5.1,11.5-4.4,15.4,1.1c3.7,5.2,4,11,2.1,16.8
			c-5.2,16.1-10.8,32-15.9,48.1c-3.9,12-7.4,24.1-11,36.2c-0.1,0.3-0.1,0.5-0.2,0.8c-2,11.9,4.2,17.4,15.7,14.3
			c0.5-0.1,1-0.4,1.5-0.5c5.6-1.5,8.9-4.5,10.8-10.6c9.9-30.5,20.4-60.8,30.8-91.1c1.5-4.3,3.3-8.4,5.3-12.5c2-4,5.4-6.3,10-5.9
			c4.8,0.4,8.3,3.1,9.3,7.5c0.9,4.3,1.6,9.2,0.4,13.3c-5.4,18-11.5,35.7-17.4,53.5c-5.1,15.5-10.3,31.1-15.6,46.6
			c-2.2,6.5-1.8,12.3,1.5,18.4c9.7,18,9.8,36.1,0.4,54.3c-6.9,13.3-18.2,20.8-32.9,21.4c-23.4,0.9-46.9,0.9-70.4,0.8
			c-8.3,0-12.9-5.2-13.4-13.8c-0.5-9.3,3.9-16,11.8-17.2c3.4-0.5,6.9-0.7,10.3-0.7c15.2-0.1,30.4,0.2,45.6-0.2
			c6.1-0.1,12.2-1.1,18.1-2.5c5.8-1.4,9.7-5.3,10.9-11.5c1.8-9.9-2.3-15.4-12.3-16.2c-5.3-0.4-10.6-0.6-16-0.9
			c-15.5-0.6-25.1-8.3-28.9-23.2C1139.1,402.8,1138.7,401.5,1138.4,400.2z"/>
		<path class="st3" d="M855.2,187.1c-9.2,5.6-16,13.6-22.5,21.8c-14.6,18.3-24.5,39.3-34.1,60.4c-8.9,19.6-17.5,39.4-26.5,59
			c-3,6.4-7,12.3-10.7,18.2c-1.4,2.2-3.4,4.1-5.5,5.8c-6.8,5.4-14.6,2.8-17.3-5.5c-1.8-5.7-0.3-11.1,2.2-16.2
			c4.1-8.4,8.7-16.5,12.6-25c8.9-19.4,13.8-39.7,13-61.2c-0.5-14.5-2.9-28.6-10.5-41.4c-11.9-20.1-32.3-26.2-53.3-15.7
			c-19,9.5-31.4,25.2-40,44.1c-6.3,13.9-9.5,28.5-7.4,43.9c1.3,9.5,6.3,17.1,12.2,24.3c4.1,5,6.1,10.5,4.8,17
			c-2.5,12.4-12.9,16.6-23.1,9.2c-7.5-5.5-11.6-13.4-14.8-21.9c-6.4-17.1-7.5-34.8-5.1-52.8c3.7-28,14.7-52.7,33.6-73.7
			c14-15.5,30.5-26.9,51.9-29.7c20.8-2.7,38.1,4.4,52.3,19.2c15.5,16.3,22.4,36.2,22.9,59.7c1.1-2,1.8-3.1,2.4-4.3
			c8.1-15.7,16.3-31.2,28.1-44.5c10.7-12.2,22.3-23.5,38.3-28.4c5-1.5,10.5-2.3,15.7-1.8c8.4,0.8,14.5,8.2,14.2,17.6
			c-0.2,7.1-1.4,14.4-3.6,21.1c-16.3,48.9-32.9,97.6-49.4,146.3c-8.9,26.2-17.8,52.4-26.8,78.6c-1.6,4.6-3.5,9.3-6.1,13.4
			c-5,8.1-14.6,7.6-19.4-0.6c-3.3-5.7-3.1-11.8-1.2-17.8c6-18.5,12.1-36.9,18.3-55.3c18-53.2,36.1-106.3,54.1-159.5
			c0.4-1.3,0.8-2.5,1.1-3.8c0-0.3,0-0.7,0-1C855.6,186.8,855.4,187,855.2,187.1z"/>
		<path class="st3" d="M944.9,328.1c-0.8,26.2-6.3,51.3-20.3,73.8c-4.3,6.9-9.7,13.5-15.8,18.8c-19.8,17.3-42.5,11.1-51.9-13.4
			c-4.7-12.4-5.4-25.2-4.5-38.2c1.4-21.6,6.7-42.3,17.2-61.4c6-10.9,13.3-20.6,23.8-27.5c17.5-11.6,37.7-5.5,45.9,13.8
			C943.3,303.7,945.2,314.8,944.9,328.1z M919.9,326.4c-0.8-4.4-1.1-9-2.5-13.2c-2.3-7-8.8-8.9-14.6-4.4c-2.8,2.1-5.4,4.9-7.1,8
			c-10.9,19.8-16.9,41-17,63.6c0,3.8,1.3,7.9,3,11.4c2.9,5.7,9,6.8,13.7,2.6c3-2.7,5.7-6,7.6-9.6
			C912.8,366.6,918.4,347.2,919.9,326.4z"/>
		<path class="st4" d="M750.8,216.3c-1.2,4.5-2.4,10.1-4.2,15.5c-20.2,60-40.6,120-61,179.9c-1.5,4.5-3.5,9-6,13
			c-5,8-14.7,7.6-19.4-0.6c-3.2-5.6-3.2-11.5-1.3-17.4c5.9-18,11.8-35.9,17.8-53.8c14.9-44.1,29.9-88.2,44.9-132.3
			c1.5-4.5,3.4-8.9,5.5-13.3c2.3-5.1,5.9-8.6,12.1-8c5,0.5,9.1,4.8,10.6,11.1C750.2,211.9,750.4,213.5,750.8,216.3z"/>
		<path class="st5" d="M452.6,421.8c8.3-6.1,16.6-12.3,24.9-18.4c-0.1-0.3-0.3-0.7-0.4-1c-2.6,0-5.3,0.3-7.8-0.1
			c-1.2-0.2-2.3-1.7-3.4-2.6c1.1-1.2,2-3.3,3.2-3.4c4.5-0.4,9.1-0.4,13.6-0.1c3.3,0.2,5,3.5,2.8,6.5c-2.9,4-6.9,7.3-10.4,10.8
			c-0.8,0.8-2,1.3-3,2c5.8,3.3,23.9-3.9,32.1-13.1c-3.1,0-5.7,0.3-8.2-0.1c-1.3-0.2-2.4-1.8-3.6-2.8c1.1-1.1,2.2-3.1,3.4-3.2
			c4.4-0.4,8.8-0.3,13.2-0.1c3.4,0.2,5.2,3.4,3.1,6.4c-2.9,4-6.8,7.3-10.3,10.9c-0.8,0.8-2,1.3-4,2.6c2.1,0.2,3.2,0.5,4.2,0.4
			c3.8-0.6,7.5-1.5,11.3-2.2c2.9-0.5,5-1.1,3.9-5.1c-1.1-4,0.8-7.4,4-9.8c2.3-1.7,4.9-3.2,7.7-4.2c1.3-0.4,3.1,0.7,4.7,1.1
			c-0.7,1.5-1,3.4-2.2,4.5c-1.4,1.3-3.6,1.7-5.2,2.9c-1.3,1-2.2,2.4-3.2,3.7c0.3,0.3,0.6,0.6,0.8,0.9c0.8-0.3,1.6-0.5,2.4-0.9
			c1.8-0.9,4-1.6,4.6,0.8c0.4,1.4-0.6,3.9-1.8,4.9c-2.2,1.8-5.2,2.7-7.6,4.4c-1.2,0.8-1.9,2.5-2.7,3.8c1.6,0.2,3.3,0.9,4.7,0.5
			c9.3-2.8,16.9-8.2,22.7-16c1.3-1.8,1.7-3.4-1.1-4c-0.3,0.1-0.6,0.2-0.7,0.3c-1.2,1.6-1.7,4.5-4.6,3.2c-2.8-1.3-1.8-3.8-1-5.9
			c0.9-2.5,1.7-5.1,3.1-7.3c0.8-1.3,2.6-2,4-3c0.6,1.6,1.2,3.2,1.7,4.8c0.1,0.5-0.1,1-0.2,1.5c8.5,3.3,9.6,8,3.8,15.4
			c-1.9,2.4-4.2,4.5-6,7c-0.7,1-0.7,2.5-1,3.8c1.3,0.1,2.8,0.5,4,0.1c4.8-1.6,8.8-3.9,10.4-9.4c1.4-4.8,3.6-9.5,5.8-14
			c0.6-1.3,2.7-1.9,4.1-2.8c0.5,1.7,1.9,3.6,1.5,5c-2,6.6-4.5,13-6.8,19.5c-0.1,0.2,0,0.5,0.1,0.7c3.3,0.5,7.6-2.8,9.3-6.8
			c4.1-9.6,11.1-16.1,21.3-18.9c1.3-0.4,2.7-0.8,3.9-0.4c1.2,0.4,2.7,1.5,2.9,2.5c0.2,1.1-0.9,2.7-1.8,3.5c-0.9,0.8-2.5,0.8-3.8,1.2
			c-7.5,2.4-13.2,6.9-15.7,14.6c-0.5,1.5,0.5,3.4,0.8,5.1c1.5-0.7,3.6-0.9,4.4-2.1c2.1-3.3,3.7-7,5.5-10.5c1.2-2.2,1.8-6,5.3-4.5
			c3.5,1.5,1.4,4.5,0.6,6.9c-1,3.2-2.2,6.3-3.3,9.5c0.5,0.4,1,0.7,1.5,1.1c2.2-1.7,4.4-3.4,6.7-5c1.6-1.2,3.4-3.8,5.2-1.2
			c0.8,1.1,0,4.3-1.2,5.4c-2.9,2.7-6.2,5-9.7,6.8c-3.1,1.6-6.3,1.5-7.9-2.4c-8,4.6-10.7,4.3-14.9-1.3c-5.2,2.9-10.4,7.9-16.3,1.3
			c-11.9,4.8-14.6,4.5-19.7-1.7c-4.2,1.5-8.2,3.4-12.4,4.5c-6.5,1.7-9.7-0.3-11.9-7c-2.1,0.3-4.2,0.7-6.5,1.1
			c1.7,9.3-1.2,16.5-8.7,21.7c-4.3,3-8.9,3.1-11.9,0.6c-3.1-2.5-4.2-7-1.5-11.7c2.6-4.6,6.3-8.6,9.6-13c-4.3,0.7-9.1,1.5-13.9,2.3
			c1.6,9.4-1.2,16.6-8.8,21.8c-4.3,3-8.9,3-11.9,0.5c-3.1-2.6-3.8-6.8-1.5-11.8c1.4-3.1,3.5-5.9,5.7-9.3c-1.2,0.6-1.9,0.9-2.6,1.2
			c-2.2,1.2-4.3,2.7-6.7,3.5c-5.4,1.8-10.2-1.9-8.6-7.2c2.4-8.3,6-16.2,9.3-24.2c0.3-0.8,2.4-1,3.6-1.5c0.6,1.5,1.9,3.2,1.5,4.4
			c-1.8,5.6-4.1,10.9-6.2,16.4c-0.6,1.5-0.8,3.1-1.2,4.7C451.7,421.3,452.2,421.6,452.6,421.8z M470.7,424.9
			c-2.7,3.6-5.4,7.2-7.9,11c-0.5,0.8,0.1,2.5,0.6,3.6c0.2,0.4,1.7,0.4,2.5,0.1C470.6,437.9,473.7,430.5,470.7,424.9z M498.1,425.3
			c-4,2.7-7.2,5.9-8.8,10.4c-0.4,1.1,0,2.6,0.5,3.7c0.2,0.4,1.7,0.6,2.4,0.3C496.9,438.2,500.3,430.1,498.1,425.3z M463.7,421.8
			c0.2,0.2,0.4,0.4,0.6,0.6c0.9-0.5,1.8-1.1,2.7-1.6c-1-0.6-1.8-0.7-2.5-0.5C464.1,420.5,464,421.3,463.7,421.8z"/>
		<path class="st1" d="M1480.1,524.8c-0.3,2.4-0.5,4.9-0.8,7.3c-36.4-1.1-72.9-2.3-109.3-3.4c-0.9,0-1.8-0.3-2.7-0.5
			c5.7-0.5,11.5-1.3,17.2-1.6c13.1-0.7,26.3-1.2,39.4-1.8c4.1-0.2,8.1-0.7,12.2-1c-12.6-0.7-25.2-1-37.8-1.4
			c-5.8-0.2-11.6-0.8-17.3-1.3c5.3-0.5,10.5-1.2,15.8-1.4c28-1.5,56.1-3,84.1-4.4c0.2,2.6,0.6,5.2,0.6,7.8
			C1481.5,523.6,1480.6,524.2,1480.1,524.8c0-1,0-2,0-3.4c-9.7,0.7-18.9,1.3-28.1,2c0,0.5,0,0.9,0,1.4
			C1461.4,524.8,1470.7,524.8,1480.1,524.8z"/>
		<path class="st5" d="M430.9,368c10.3,0.1,18.2,6.5,19.4,16c1.3,10.2-5.8,21.3-15,23.7c-2.3,0.6-4.4,0.4-5.3-2.1
			c-0.9-2.5,0.4-4,2.8-4.8c4.8-1.7,8.2-4.9,9.7-9.8c2.5-8-1.8-14.5-10-15.6c-11-1.4-23.9,9-24.1,20.1c-0.1,2.8,1.7,5.9,3.3,8.5
			c1.3,2,3,3.7,1.1,6c-2.1,2.4-4.5,1.3-6.4-0.3c-5.2-4.6-6.3-10.7-5.1-17.2C403.7,378.8,417.1,367.9,430.9,368z"/>
		<path class="st6" d="M1381,521c5.8,0.4,11.6,1.1,17.3,1.3c12.6,0.4,25.2,0.7,37.8,1.4c-4.1,0.4-8.1,0.8-12.2,1
			c-13.1,0.6-26.3,1.1-39.4,1.8c-5.8,0.3-11.5,1.1-17.2,1.6c-8.3,0.1-16.5,0.3-24.8,0.4c-2.3-0.4-4.6-1.2-6.9-1.2
			c-14.8-0.4-29.5-0.7-44.3-1c-0.5,0-1-0.1-1.6-0.6c7.6-0.6,15.3-1.3,22.9-1.7c13-0.7,26-1.2,39-1.8c1-0.1,2-0.8,3-1.2
			C1363.4,521.1,1372.2,521.1,1381,521z"/>
		<path class="st5" d="M410.7,425.7c0.6-2.1,1-3.5,1.5-4.9c5-12.7,10-25.5,15-38.2c0.3-0.7,0.4-1.7,1-2.1c1.3-1,2.8-1.8,4.3-2.6
			c0.6,1.7,2.1,3.8,1.6,5.1c-5.4,14.4-11,28.8-16.8,43c-0.5,1.2-2.5,2.4-3.8,2.5C412.5,428.6,411.5,426.6,410.7,425.7z"/>
		<path class="st5" d="M569.5,391.9c-2.8-0.6-4.7-3.5-3.2-5.3c3-3.5,6.7-6.6,10.4-9.4c1.6-1.2,4.5,2,3.2,3.8
			C577,385,573.1,388.3,569.5,391.9z"/>
		<path class="st7" d="M464.7,389.6c-2.2,2.1-3.7,3.4-5.2,4.8c-1.1-1.4-3-2.6-3.3-4.1c-0.4-2.4,1-4.7,3.8-4.5
			C461.4,386,462.5,387.8,464.7,389.6z"/>
		<path class="st8" d="M1484.8,521.4c0.1-2.4,0.2-4.8,0.3-7.2c8.2-0.2,16.5-0.3,24.7-0.8c17.6-0.9,35.1-2,52.7-3
			c27.1-1.5,54.3-3.1,81.4-4.5c22.1-1.2,44.2-2.4,66.3-3.5c16.8-0.8,33.5-1.5,50.3-2.2c1.5-0.1,2.9,0,4.7,0c0,2.1,0,4,0,6.3
			c-1.1,0.1-2.2,0.2-3.4,0.3c-29,1.4-58,2.7-87,4.1c-16.9,0.8-33.8,1.8-50.7,2.7c-29.5,1.6-59.1,3.2-88.6,4.9
			C1518.6,519.4,1501.7,520.4,1484.8,521.4z"/>
		<path class="st1" d="M1484.1,532c0-2.4,0-4.8,0-7.1c71.9,2.3,143.8,4.6,215.8,6.9c0,2.7,0,4.9,0,7.4c-1.7,0-3.1,0-4.5,0
			c-44.3-1.4-88.7-2.8-133-4.2c-22.5-0.7-45-1.4-67.5-2.2C1491.3,532.6,1487.7,532.2,1484.1,532z"/>
		<path class="st8" d="M1483.2,524c0.5-0.8,1-1.7,1.5-2.5C1484.2,522.4,1483.7,523.2,1483.2,524z"/>
		<path class="st0" d="M855.2,187.1c0.2-0.2,0.3-0.4,0.5-0.5c0,0.3,0,0.7,0,1C855.6,187.5,855.4,187.3,855.2,187.1z"/>
		<path class="st9" d="M919.9,326.4c-1.5,20.8-7.1,40.2-16.8,58.4c-1.9,3.6-4.6,6.9-7.6,9.6c-4.7,4.2-10.9,3.1-13.7-2.6
			c-1.7-3.4-3-7.6-3-11.4c0.2-22.6,6.2-43.8,17-63.6c1.7-3.1,4.3-5.9,7.1-8c5.8-4.5,12.3-2.6,14.6,4.4
			C918.8,317.4,919.1,322,919.9,326.4z"/>
		<path class="st9" d="M470.7,424.9c3,5.6-0.2,13-4.8,14.7c-0.8,0.3-2.3,0.2-2.5-0.1c-0.5-1.1-1.1-2.8-0.6-3.6
			C465.3,432.1,468.1,428.5,470.7,424.9z"/>
		<path class="st9" d="M498.1,425.3c2.2,4.9-1.2,12.9-5.9,14.4c-0.7,0.2-2.3,0.1-2.4-0.3c-0.5-1.1-0.9-2.6-0.5-3.7
			C490.9,431.1,494.1,427.9,498.1,425.3z"/>
		<path class="st0" d="M463.7,421.8c0.3-0.5,0.4-1.3,0.8-1.4c0.6-0.3,1.5-0.1,2.5,0.5c-0.9,0.5-1.8,1.1-2.7,1.6
			C464.1,422.2,463.9,422,463.7,421.8z"/>
		<path class="st9" d="M1480.1,524.8c-9.4,0-18.7,0-28.1,0c0-0.5,0-0.9,0-1.4c9.2-0.7,18.4-1.3,28.1-2
			C1480.1,522.8,1480.1,523.8,1480.1,524.8L1480.1,524.8z"/>
	</g>
</g>
</svg>
